{
    "lobbyPointers": [
        {            
            "class":"p1",
            "title":"helpdesk", 
            "top": 84, 
            "left": 48, 
            "animation_url":null, 
            "path":"helpdesk",
            "is_enabled":true,
            "text":"go to Helpdesk"
        },
        {
            "class":"p2", 
            "title":"ganga", 
            "top": 47, 
            "left": 16.3, 
            "animation_url":"https://d3ep09c8x21fmh.cloudfront.net/azadi/hope.mp4", 
            "path":"auditorium/full/205096",
            "is_enabled":true,
            "text":"click here to see ganga" 
        },
        {
            "class":"p3", 
            "title":"feedback", 
            "top": 64, 
            "left": 58, 
            "animation_url":null, 
            "path":null,
            "is_enabled":false,
            "text":"click here to see Feedback"  
        },
        {
            "class":"p4", 
            "title":"inaugural", 
            "top": 43, 
            "left": 48.06, 
            "animation_url":"https://d3ep09c8x21fmh.cloudfront.net/azadi/hope.mp4", 
            "path":"inaugural",
            "is_enabled":true,
            "text":"click here to go inaugural", 
            "leader_board": 1
        },
        {
            "class":"p5", 
            "title":"brahmaputra", 
            "top": 46, 
            "left": 79.65, 
            "animation_url":"https://d3ep09c8x21fmh.cloudfront.net/azadi/hope.mp4", 
            "path":"auditorium/full/205099",
            "is_enabled":true,
            "text":"click here to go inaugural", 
            "leader_board": 1
        },
        {
            "class":"p5", 
            "title":"exhibition hall", 
            "top": 51, 
            "left": 36, 
            "animation_url":"https://d3ep09c8x21fmh.cloudfront.net/honeywell/exhibition.mp4", 
            "path":"exhibition/home/1",
            "is_enabled":false,
            "text":"click here to go Exhibition" ,
            "leader_board": 1
        },
        {
            "class":"p6", 
            "title":"narmada", 
            "top": 57, 
            "left": 39.65, 
            "animation_url":"https://d3ep09c8x21fmh.cloudfront.net/azadi/hope.mp4", 
            "path":"auditorium/full/205097",
            "is_enabled":true,
            "text":"click here to go inaugural", 
            "leader_board": 1
        },
        {
            "class":"p6", 
            "title":"photobooth", 
            "top": 51, 
            "left": 61, 
            "animation_url":"https://d3ep09c8x21fmh.cloudfront.net/honeywell/photobooth.mp4", 
            "path":"photobooth",
            "is_enabled":false,
            "text":"click here to go Photobooth",
            "leader_board": 1
        },
        {
            "class":"p7", 
            "title":"krishna", 
            "top": 57, 
            "left": 56, 
            "animation_url":"https://d3ep09c8x21fmh.cloudfront.net/azadi/hope.mp4", 
            "path":"auditorium/full/205098",
            "is_enabled":true,
            "text":"click here to go inaugural", 
            "leader_board": 1
        },
        {
            "class":"p7", 
            "title":"game zone", 
            "top": 38, 
            "left": 72, 
            "animation_url":"https://d3ep09c8x21fmh.cloudfront.net/honeywell/game.mp4", 
            "path":"gamezone",
            "is_enabled":false,
            "text":"click here to go Game zone",
            "leader_board": 1
        }
    
    ],
    "lobbyPointers3": [
        {            
            "class":"p1",
            "title":"helpdesk", 
            "top": 84, 
            "left": 48, 
            "animation_url":null, 
            "path":"helpdesk",
            "is_enabled":true,
            "text":"go to Helpdesk"
        },
        {
            "class":"p2", 
            "title":"experience auroville", 
            "top": 47, 
            "left": 16.3, 
            "animation_url":"https://d3ep09c8x21fmh.cloudfront.net/azadi/hope.mp4", 
            "path":"auroville",
            "is_enabled":true,
            "text":"click here to see ganga" 
        },
        {
            "class":"p4", 
            "title":"yoga", 
            "top": 46, 
            "left": 48.06, 
            "animation_url":"https://d3ep09c8x21fmh.cloudfront.net/azadi/hope.mp4", 
            "path":"auditorium/full/205101",
            "is_enabled":true,
            "text":"click here to go inaugural", 
            "leader_board": 1
        },
        {
            "class":"p5", 
            "title":"experience puducherry", 
            "top": 46, 
            "left": 79.65, 
            "animation_url":"https://d3ep09c8x21fmh.cloudfront.net/azadi/hope.mp4", 
            "path":"puducherry",
            "is_enabled":true,
            "text":"click here to go inaugural", 
            "leader_board": 1
        },
        {
            "class":"p5", 
            "title":"exhibition hall", 
            "top": 51, 
            "left": 36, 
            "animation_url":"https://d3ep09c8x21fmh.cloudfront.net/honeywell/exhibition.mp4", 
            "path":"exhibition/home/1",
            "is_enabled":false,
            "text":"click here to go Exhibition" ,
            "leader_board": 1
        },
        {
            "class":"p6", 
            "title":"photobooth", 
            "top": 51, 
            "left": 61, 
            "animation_url":"https://d3ep09c8x21fmh.cloudfront.net/honeywell/photobooth.mp4", 
            "path":"photobooth",
            "is_enabled":false,
            "text":"click here to go Photobooth",
            "leader_board": 1
        },
        {
            "class":"p7", 
            "title":"game zone", 
            "top": 38, 
            "left": 72, 
            "animation_url":"https://d3ep09c8x21fmh.cloudfront.net/honeywell/game.mp4", 
            "path":"gamezone",
            "is_enabled":false,
            "text":"click here to go Game zone",
            "leader_board": 1
        }
    
    ],
    "lobbyPointers2": [
        {            
            "class":"p1",
            "title":"helpdesk", 
            "top": 84, 
            "left": 48, 
            "animation_url":null, 
            "path":"helpdesk",
            "is_enabled":true,
            "text":"go to Helpdesk"
        },
        {
            "class":"p2", 
            "title":"island of dreams", 
            "top": 47, 
            "left": 16.3, 
            "animation_url":"https://d3ep09c8x21fmh.cloudfront.net/honeywell/helpdesk.mp4", 
            "path":"dreams",
            "is_enabled":true,
            "text":"click here to see ganga" 
        },
        {
            "class":"p4", 
            "title":"music concert", 
            "top": 46, 
            "left": 56.6, 
            "animation_url":"https://d3ep09c8x21fmh.cloudfront.net/azadi/hope.mp4", 
            "path":"auditorium/full/205100",
            "is_enabled":true,
            "text":"click here to go inaugural", 
            "leader_board": 1
        },
        {
            "class":"p5", 
            "title":"play", 
            "top": 46, 
            "left": 39.8, 
            "animation_url":"https://d3ep09c8x21fmh.cloudfront.net/azadi/hope.mp4", 
            "path":"gamezone",
            "is_enabled":true,
            "text":"click here to go inaugural", 
            "leader_board": 1
        },
        {
            "class":"p6", 
            "title":"indigenous", 
            "top": 46, 
            "left": 79.7, 
            "animation_url":"https://d3ep09c8x21fmh.cloudfront.net/azadi/hope.mp4", 
            "path":"indegenous",
            "is_enabled":true,
            "text":"click here to go inaugural", 
            "leader_board": 1
        },
        {
            "class":"p5", 
            "title":"exhibition hall", 
            "top": 51, 
            "left": 36, 
            "animation_url":"https://d3ep09c8x21fmh.cloudfront.net/honeywell/exhibition.mp4", 
            "path":"exhibition/home/1",
            "is_enabled":false,
            "text":"click here to go Exhibition" ,
            "leader_board": 1
        },
        {
            "class":"p6", 
            "title":"photobooth", 
            "top": 51, 
            "left": 61, 
            "animation_url":"https://d3ep09c8x21fmh.cloudfront.net/honeywell/photobooth.mp4", 
            "path":"photobooth",
            "is_enabled":false,
            "text":"click here to go Photobooth",
            "leader_board": 1
        },
        {
            "class":"p7", 
            "title":"game zone", 
            "top": 38, 
            "left": 72, 
            "animation_url":"https://d3ep09c8x21fmh.cloudfront.net/honeywell/game.mp4", 
            "path":"gamezone",
            "is_enabled":false,
            "text":"click here to go Game zone",
            "leader_board": 1
        }
    
    ],
    "helpdeskPointers": [
        {
            "class":"p1",
            "title":"agenda", 
            "top": 45, 
            "left": 20
        },
        {
            "class":"p2",
            "title":"helpdesk", 
            "top": 64, 
            "left": 48
        },
        {
            "class":"p3",
            "title":"feedback", 
            "top": 45, 
            "left": 76
        }
    ],
    "gamezonePointers": [
   
        {
            "class":"p1",
            "name":"fruit",
            "title":"gamezone", 
            "top": 60.3, 
            "left": 20.2,
            "url": "https://engagements.skunkworksxp.in/ABGame/WORDGAME/index.html"
        }, {
            "class":"p2",
            "title":"gamezone", 
            "name":"memory",
            "top": 53, 
            "left": 46,
            "url": "https://engagements.skunkworksxp.in/ABGame/CLASSICBOWLING/index.html"

        }, {
            "class":"p3",
            "name":"maze",
            "title":"gamezone", 
            "top": 53, 
            "left": 74,
            "url": "https://engagements.skunkworksxp.in/ABGame/PENALTYKICKS/index.html"

        }, {
            "class":"p4",
            "name":"cars",
            "title":"gamezone", 
            "top": 26.4, 
            "left": 19.2,
            "url": "https://previews.customer.envatousercontent.com/files/266349013/index.html"

        }, {
            "class":"p5",
            "name":"cars",
            "title":"gamezone", 
            "top": 25.4, 
            "left": 75.3,
            "url": "https://previews.customer.envatousercontent.com/files/285517295/index.html"

        }
       
    ],
    "networkinLoungePointers": [
        {
            "class":"p1",
            "title":"agenda", 
            "top": 10, 
            "right": 18,
            "path":null
        },
        {
            "class":"p2",
            "title":"games", 
            "top": 17, 
            "right": 18,
            "path":"gamezone"
        },
        {
            "class":"p3",
            "title":"photobooth", 
            "top": 24, 
            "right": 18,
            "path":"photobooth"
        },
        {
            "class":"p4",
            "title":"let's chat", 
            "top": 33, 
            "right": 18,
            "path":null
        }
    ],
     "bgImages": {
        "signup":"assets/event/ipa/background.jpg", 
        "lobby":"assets/event/hall1.jpg",
        "lobby2":"assets/event/hall2.jpg",
        "lobby3":"assets/event/hall3.jpg",
        "gamezone":"assets/event/gamezone.jpg",
        "lounge":"assets/event/networking_lounge.jpg",
        "photobooth":"assets/event/photobooth_files/photobooth.jpg"
    }, 
    "menuItems":[
        {"is_enabled":true, "icon":"assets/icons/01.png", "leader_board": 1, "is_modal":false, "path":"mainlobby", "name":"PUDUCHERRY PROMENADE"},
        {"is_enabled":true, "icon":"assets/icons/09.png", "leader_board": 1, "is_modal":false, "path":"lobby2", "name":"SUBRAMANIA BHARATHI"},
        {"is_enabled":true, "icon":"assets/icons/09.png", "leader_board": 1, "is_modal":false, "path":"lobby", "name":"VIVEKANAND MANTHAN CAMPUS"},
        {"is_enabled":true, "icon":"assets/icons/09.png", "leader_board": 1, "is_modal":false, "path":"lobby3", "name":"SHRI AUROBINDO ARENA"},
        {"is_enabled":false, "icon":"assets/icons/02.png", "leader_board": 1, "is_modal":false, "path":"auditorium", "name":"auditorium"},
        {"is_enabled":false, "icon":"assets/icons/02.png", "leader_board": 1, "is_modal":false, "path":"auditorium/full/205095", "name":"full stage"},
        {"is_enabled":true, "icon":"assets/icons/07.png", "is_modal":true, "path":null, "data_target":"pdf", "name":"agenda"},
        {"is_enabled":false, "icon":"assets/icons/02.png", "leader_board": 1, "is_modal":false, "path":"auditorium/stage/205068", "name":"custom"},
        {"is_enabled":false, "icon":"assets/icons/03.png", "leader_board": 1, "is_modal":false, "path":"exhibition/home/1", "name":"exhibition1"},
        {"is_enabled":false, "icon":"assets/icons/03.png", "leader_board": 1, "is_modal":false, "path":"exhibition/home/2", "name":"exhibition2"},
        {"is_enabled":false, "icon":"assets/icons/04.png", "leader_board": 1, "is_modal":false, "path":"lounge", "name":"lounge"},
        {"is_enabled":true, "icon":"assets/icons/05.png", "leader_board": 1, "is_modal":false, "path":"gamezone", "name":"play"},
        {"is_enabled":false, "icon":"assets/icons/06.png", "leader_board": 1, "is_modal":false, "path":"photobooth", "name":"photobooth"},
        {"is_enabled":false, "icon":"assets/icons/07.png", "leader_board": 1, "is_modal":false, "path":"signaturewall", "name":"signature wall"},
        {"is_enabled":false, "icon":"assets/event/Briefcase.png", "is_modal":false, "path":null, "data_target":"briefcase", "name":"briefcase"},
        {"is_enabled":false, "icon":"assets/icons/08.png", "is_modal":false, "path":null, "data_target":"leaderboard", "name":"leaderboard"},
        {"is_enabled":false, "icon":"assets/icons/help-desk.png", "is_modal":false, "path":null, "data_target":"welcome_chat", "name":"helpdesk"}
        
    ],
    "auditorium":[
        {"id":"205095", "path":"full"},
        {"id":"205068", "path":"stage"},
        {"id":"205069", "path":"stage"}
    ],
    "leaderboardCriteria":[
        {"criteria":"platform login", "points": "50"},
        {"criteria":"platform lobby", "points": "50"},
        {"criteria":"platform auditorium", "points": "50"},
        {"criteria":"platform photobooth", "points": "50"},
        {"criteria":"platform chat", "points": "50"},
        {"criteria":"platform quiz", "points": "50"}
    ]
}